%YAML 1.1
%TAG !u! tag:unity3d.com,2011:
--- !u!1 &2310780541699232630
GameObject:
  m_ObjectHideFlags: 0
  m_CorrespondingSourceObject: {fileID: 0}
  m_PrefabInstance: {fileID: 0}
  m_PrefabAsset: {fileID: 0}
  serializedVersion: 6
  m_Component:
  - component: {fileID: 2310780541699232626}
  - component: {fileID: 2310780541699232625}
  - component: {fileID: 2310780541699232624}
  - component: {fileID: 2310780541699232631}
  - component: {fileID: 2310780541699232627}
  m_Layer: 0
  m_Name: taforma elevada
  m_TagString: Untagged
  m_Icon: {fileID: 0}
  m_NavMeshLayer: 0
  m_StaticEditorFlags: 2147483647
  m_IsActive: 1
--- !u!4 &2310780541699232626
Transform:
  m_ObjectHideFlags: 0
  m_CorrespondingSourceObject: {fileID: 0}
  m_PrefabInstance: {fileID: 0}
  m_PrefabAsset: {fileID: 0}
  m_GameObject: {fileID: 2310780541699232630}
  m_LocalRotation: {x: 0, y: 0, z: 0, w: 1}
  m_LocalPosition: {x: -45.57, y: 3.96, z: 51.21}
  m_LocalScale: {x: 42.069252, y: 1, z: 40.88548}
  m_ConstrainProportionsScale: 0
  m_Children: []
  m_Father: {fileID: 0}
  m_RootOrder: 0
  m_LocalEulerAnglesHint: {x: 0, y: 0, z: 0}
--- !u!33 &2310780541699232625
MeshFilter:
  m_ObjectHideFlags: 0
  m_CorrespondingSourceObject: {fileID: 0}
  m_PrefabInstance: {fileID: 0}
  m_PrefabAsset: {fileID: 0}
  m_GameObject: {fileID: 2310780541699232630}
  m_Mesh: {fileID: 0}
--- !u!23 &2310780541699232624
MeshRenderer:
  m_ObjectHideFlags: 0
  m_CorrespondingSourceObject: {fileID: 0}
  m_PrefabInstance: {fileID: 0}
  m_PrefabAsset: {fileID: 0}
  m_GameObject: {fileID: 2310780541699232630}
  m_Enabled: 1
  m_CastShadows: 1
  m_ReceiveShadows: 1
  m_DynamicOccludee: 1
  m_StaticShadowCaster: 0
  m_MotionVectors: 1
  m_LightProbeUsage: 1
  m_ReflectionProbeUsage: 1
  m_RayTracingMode: 2
  m_RayTraceProcedural: 0
  m_RenderingLayerMask: 1
  m_RendererPriority: 0
  m_Materials:
  - {fileID: 2100000, guid: 838fa2dc33f1afb4c8d51a3b2542dc59, type: 2}
  m_StaticBatchInfo:
    firstSubMesh: 0
    subMeshCount: 0
  m_StaticBatchRoot: {fileID: 0}
  m_ProbeAnchor: {fileID: 0}
  m_LightProbeVolumeOverride: {fileID: 0}
  m_ScaleInLightmap: 1
  m_ReceiveGI: 1
  m_PreserveUVs: 0
  m_IgnoreNormalsForChartDetection: 0
  m_ImportantGI: 0
  m_StitchLightmapSeams: 1
  m_SelectedEditorRenderState: 3
  m_MinimumChartSize: 4
  m_AutoUVMaxDistance: 0.5
  m_AutoUVMaxAngle: 89
  m_LightmapParameters: {fileID: 0}
  m_SortingLayerID: 0
  m_SortingLayer: 0
  m_SortingOrder: 0
  m_AdditionalVertexStreams: {fileID: 0}
--- !u!65 &2310780541699232631
BoxCollider:
  m_ObjectHideFlags: 0
  m_CorrespondingSourceObject: {fileID: 0}
  m_PrefabInstance: {fileID: 0}
  m_PrefabAsset: {fileID: 0}
  m_GameObject: {fileID: 2310780541699232630}
  m_Material: {fileID: 0}
  m_IsTrigger: 0
  m_Enabled: 1
  serializedVersion: 2
  m_Size: {x: 1, y: 1, z: 1}
  m_Center: {x: 0, y: 0, z: 0}
--- !u!114 &2310780541699232627
MonoBehaviour:
  m_ObjectHideFlags: 0
  m_CorrespondingSourceObject: {fileID: 0}
  m_PrefabInstance: {fileID: 0}
  m_PrefabAsset: {fileID: 0}
  m_GameObject: {fileID: 2310780541699232630}
  m_Enabled: 1
  m_EditorHideFlags: 0
  m_Script: {fileID: 11500000, guid: 4bd5e5ddd242bd64581fb5ed9c0e0507, type: 3}
  m_Name: 
  m_EditorClassIdentifier: 
  m_PolyMesh:
    name: PolybrushMesh30642
    vertices:
    - {x: 0.5, y: -0.5, z: 0.5}
    - {x: -0.5, y: -0.5, z: 0.5}
    - {x: 0.5, y: 0.5, z: 0.5}
    - {x: -0.5, y: 0.5, z: 0.5}
    - {x: 0.5, y: 0.5, z: -0.5}
    - {x: -0.5, y: 0.5, z: -0.5}
    - {x: 0.5, y: -0.5, z: -0.5}
    - {x: -0.5, y: -0.5, z: -0.5}
    - {x: 0.5, y: 0.5, z: 0.5}
    - {x: -0.5, y: 0.5, z: 0.5}
    - {x: 0.5, y: 0.5, z: -0.5}
    - {x: -0.5, y: 0.5, z: -0.5}
    - {x: 0.5, y: -0.5, z: -0.5}
    - {x: 0.5, y: -0.5, z: 0.5}
    - {x: -0.5, y: -0.5, z: 0.5}
    - {x: -0.5, y: -0.5, z: -0.5}
    - {x: -0.5, y: -0.5, z: 0.5}
    - {x: -0.5, y: 0.5, z: 0.5}
    - {x: -0.5, y: 0.5, z: -0.5}
    - {x: -0.5, y: -0.5, z: -0.5}
    - {x: 0.5, y: -0.5, z: -0.5}
    - {x: 0.5, y: 0.5, z: -0.5}
    - {x: 0.5, y: 0.5, z: 0.5}
    - {x: 0.5, y: -0.5, z: 0.5}
    normals:
    - {x: 0, y: 0, z: 1}
    - {x: 0, y: 0, z: 1}
    - {x: 0, y: 0, z: 1}
    - {x: 0, y: 0, z: 1}
    - {x: 0, y: 1, z: 0}
    - {x: 0, y: 1, z: 0}
    - {x: 0, y: 0, z: -1}
    - {x: 0, y: 0, z: -1}
    - {x: 0, y: 1, z: 0}
    - {x: 0, y: 1, z: 0}
    - {x: 0, y: 0, z: -1}
    - {x: 0, y: 0, z: -1}
    - {x: 0, y: -1, z: 0}
    - {x: 0, y: -1, z: 0}
    - {x: 0, y: -1, z: 0}
    - {x: 0, y: -1, z: 0}
    - {x: -1, y: 0, z: 0}
    - {x: -1, y: 0, z: 0}
    - {x: -1, y: 0, z: 0}
    - {x: -1, y: 0, z: 0}
    - {x: 1, y: 0, z: 0}
    - {x: 1, y: 0, z: 0}
    - {x: 1, y: 0, z: 0}
    - {x: 1, y: 0, z: 0}
    colors: []
    tangents:
    - {x: -1, y: 0, z: 0, w: -1}
    - {x: -1, y: 0, z: 0, w: -1}
    - {x: -1, y: 0, z: 0, w: -1}
    - {x: -1, y: 0, z: 0, w: -1}
    - {x: -1, y: 0, z: 0, w: -1}
    - {x: -1, y: 0, z: 0, w: -1}
    - {x: -1, y: 0, z: 0, w: -1}
    - {x: -1, y: 0, z: 0, w: -1}
    - {x: -1, y: 0, z: 0, w: -1}
    - {x: -1, y: 0, z: 0, w: -1}
    - {x: -1, y: 0, z: 0, w: -1}
    - {x: -1, y: 0, z: 0, w: -1}
    - {x: -1, y: 0, z: 0, w: -1}
    - {x: -1, y: 0, z: 0, w: -1}
    - {x: -1, y: 0, z: 0, w: -1}
    - {x: -1, y: 0, z: 0, w: -1}
    - {x: 0, y: 0, z: -1, w: -1}
    - {x: 0, y: 0, z: -1, w: -1}
    - {x: 0, y: 0, z: -1, w: -1}
    - {x: 0, y: 0, z: -1, w: -1}
    - {x: 0, y: 0, z: 1, w: -1}
    - {x: 0, y: 0, z: 1, w: -1}
    - {x: 0, y: 0, z: 1, w: -1}
    - {x: 0, y: 0, z: 1, w: -1}
    uv0:
    - {x: 0, y: 0, z: 0, w: 0}
    - {x: 1, y: 0, z: 0, w: 0}
    - {x: 0, y: 1, z: 0, w: 0}
    - {x: 1, y: 1, z: 0, w: 0}
    - {x: 0, y: 1, z: 0, w: 0}
    - {x: 1, y: 1, z: 0, w: 0}
    - {x: 0, y: 1, z: 0, w: 0}
    - {x: 1, y: 1, z: 0, w: 0}
    - {x: 0, y: 0, z: 0, w: 0}
    - {x: 1, y: 0, z: 0, w: 0}
    - {x: 0, y: 0, z: 0, w: 0}
    - {x: 1, y: 0, z: 0, w: 0}
    - {x: 0, y: 0, z: 0, w: 0}
    - {x: 0, y: 1, z: 0, w: 0}
    - {x: 1, y: 1, z: 0, w: 0}
    - {x: 1, y: 0, z: 0, w: 0}
    - {x: 0, y: 0, z: 0, w: 0}
    - {x: 0, y: 1, z: 0, w: 0}
    - {x: 1, y: 1, z: 0, w: 0}
    - {x: 1, y: 0, z: 0, w: 0}
    - {x: 0, y: 0, z: 0, w: 0}
    - {x: 0, y: 1, z: 0, w: 0}
    - {x: 1, y: 1, z: 0, w: 0}
    - {x: 1, y: 0, z: 0, w: 0}
    uv1:
    - {x: 0.6909865, y: 0.3471644, z: 0, w: 0}
    - {x: 0.9966581, y: 0.3471644, z: 0, w: 0}
    - {x: 0.6909865, y: 0.65283585, z: 0, w: 0}
    - {x: 0.9966581, y: 0.65283585, z: 0, w: 0}
    - {x: 0.3097273, y: 0.34716424, z: 0, w: 0}
    - {x: 0.0040557664, y: 0.34716424, z: 0, w: 0}
    - {x: 0.34716424, y: 0.65283585, z: 0, w: 0}
    - {x: 0.65283585, y: 0.65283585, z: 0, w: 0}
    - {x: 0.3097273, y: 0.65283585, z: 0, w: 0}
    - {x: 0.0040557664, y: 0.65283585, z: 0, w: 0}
    - {x: 0.34716424, y: 0.34716424, z: 0, w: 0}
    - {x: 0.65283585, y: 0.34716424, z: 0, w: 0}
    - {x: 0.34716424, y: 0.0040557664, z: 0, w: 0}
    - {x: 0.34716424, y: 0.3097273, z: 0, w: 0}
    - {x: 0.65283585, y: 0.3097273, z: 0, w: 0}
    - {x: 0.65283585, y: 0.0040557664, z: 0, w: 0}
    - {x: 0.6902728, y: 0.3097273, z: 0, w: 0}
    - {x: 0.99594426, y: 0.3097273, z: 0, w: 0}
    - {x: 0.99594426, y: 0.0040557664, z: 0, w: 0}
    - {x: 0.6902728, y: 0.0040557664, z: 0, w: 0}
    - {x: 0.3097273, y: 0.0040557664, z: 0, w: 0}
    - {x: 0.0040557664, y: 0.0040557664, z: 0, w: 0}
    - {x: 0.0040557664, y: 0.3097273, z: 0, w: 0}
    - {x: 0.3097273, y: 0.3097273, z: 0, w: 0}
    uv2: []
    uv3: []
    m_Triangles: 0000000002000000030000000000000003000000010000000800000004000000050000000800000005000000090000000a00000006000000070000000a000000070000000b0000000c0000000d0000000e0000000c0000000e0000000f000000100000001100000012000000100000001200000013000000140000001500000016000000140000001600000017000000
    m_SubMeshes:
    - m_Indexes: 0000000002000000030000000000000003000000010000000800000004000000050000000800000005000000090000000a00000006000000070000000a000000070000000b0000000c0000000d0000000e0000000c0000000e0000000f000000100000001100000012000000100000001200000013000000140000001500000016000000140000001600000017000000
      m_Topology: 0
    m_Mesh: {fileID: 0}
  m_SkinMeshRef: {fileID: 0}
  m_OriginalMeshObject: {fileID: 10202, guid: 0000000000000000e000000000000000, type: 0}
  m_Mode: 0
